{
    "results": [
                {
                "vote_count": 96,
                "id": 399360,
                "video": false,
                "vote_average": 5.7,
                "title": "Alpha - MOCKED",
                "popularity": 74.429,
                "poster_path": "/afdZAIcAQscziqVtsEoh2PwsYTW.jpg",
                "original_language": "en",
                "original_title": "Alpha",
                "genre_ids": [
                              12,
                              18
                              ],
                "backdrop_path": "/nKMeTdm72LQ756Eq20uTjF1zDXu.jpg",
                "adult": false,
                "overview": "After a hunting expedition goes awry, a young caveman struggles against the elements to find his way home.",
                "release_date": "2018-08-17"
                },
                {
                "vote_count": 751,
                "id": 493922,
                "video": false,
                "vote_average": 7,
                "title": "Hereditary",
                "popularity": 68.274,
                "poster_path": "/4GFPuL14eXi66V96xBWY73Y9PfR.jpg",
                "original_language": "en",
                "original_title": "Hereditary",
                "genre_ids": [
                              27,
                              18,
                              9648,
                              53
                              ],
                "backdrop_path": "/pS9Aub8MPyQbENblGD8mHeaqMuv.jpg",
                "adult": false,
                "overview": "When Ellen, the matriarch of the Graham family, passes away, her daughter's family begins to unravel cryptic and increasingly terrifying secrets about their ancestry. The more they discover, the more they find themselves trying to outrun the sinister fate they seem to have inherited.",
                "release_date": "2018-06-04"
                },
                {
                "vote_count": 2108,
                "id": 260513,
                "video": false,
                "vote_average": 7.7,
                "title": "Incredibles 2",
                "popularity": 51.065,
                "poster_path": "/x1txcDXkcM65gl7w20PwYSxAYah.jpg",
                "original_language": "en",
                "original_title": "Incredibles 2",
                "genre_ids": [
                              28,
                              12,
                              16,
                              10751
                              ],
                "backdrop_path": "/mabuNsGJgRuCTuGqjFkWe1xdu19.jpg",
                "adult": false,
                "overview": "Elastigirl springs into action to save the day, while Mr. Incredible faces his greatest challenge yet – taking care of the problems of his three children.",
                "release_date": "2018-06-14"
                },
                {
                "vote_count": 357,
                "id": 429300,
                "video": false,
                "vote_average": 6.5,
                "title": "Adrift",
                "popularity": 47.523,
                "poster_path": "/5gLDeADaETvwQlQow5szlyuhLbj.jpg",
                "original_language": "en",
                "original_title": "Adrift",
                "genre_ids": [
                              53,
                              10749,
                              12
                              ],
                "backdrop_path": "/64jAqTJvrzEwncD3ARZdqYLcqbc.jpg",
                "adult": false,
                "overview": "A true story of survival, as a young couple's chance encounter leads them first to love, and then on the adventure of a lifetime as they face one of the most catastrophic hurricanes in recorded history.",
                "release_date": "2018-05-31"
                },
                {
                "vote_count": 7,
                "id": 439079,
                "video": false,
                "vote_average": 5.4,
                "title": "The Nun",
                "popularity": 44.5,
                "poster_path": "/sFC1ElvoKGdHJIWRpNB3xWJ9lJA.jpg",
                "original_language": "en",
                "original_title": "The Nun",
                "genre_ids": [
                              27,
                              9648,
                              53
                              ],
                "backdrop_path": "/tfKxFPq4lel0bL80H0C6kGYKGEq.jpg",
                "adult": false,
                "overview": "When a young nun at a cloistered abbey in Romania takes her own life, a priest with a haunted past and a novitiate on the threshold of her final vows are sent by the Vatican to investigate. Together they uncover the order’s unholy secret. Risking not only their lives but their faith and their very souls, they confront a malevolent force in the form of the same demonic nun that first terrorized audiences in “The Conjuring 2,” as the abbey becomes a horrific battleground between the living and the damned.",
                "release_date": "2018-09-06"
                },
                {
                "vote_count": 412,
                "id": 345887,
                "video": false,
                "vote_average": 6.3,
                "title": "The Equalizer 2",
                "popularity": 36.983,
                "poster_path": "/cQvc9N6JiMVKqol3wcYrGshsIdZ.jpg",
                "original_language": "en",
                "original_title": "The Equalizer 2",
                "genre_ids": [
                              53,
                              28,
                              80
                              ],
                "backdrop_path": "/z6KLDE72SxE1A8JcJTmmnWArOvR.jpg",
                "adult": false,
                "overview": "Robert McCall returns to deliver his special brand of vigilante justice -- but how far will he go when it's someone he loves?",
                "release_date": "2018-07-19"
                },
                {
                "vote_count": 541,
                "id": 447200,
                "video": false,
                "vote_average": 6,
                "title": "Skyscraper",
                "popularity": 34.704,
                "poster_path": "/5LYSsOPzuP13201qSzMjNxi8FxN.jpg",
                "original_language": "en",
                "original_title": "Skyscraper",
                "genre_ids": [
                              28,
                              53,
                              18
                              ],
                "backdrop_path": "/oMKFQmoVgB69fyXfSMu0lGlHJP2.jpg",
                "adult": false,
                "overview": "Framed and on the run, a former FBI agent must save his family from a blazing fire in the world's tallest building.",
                "release_date": "2018-07-11"
                },
                {
                "vote_count": 139,
                "id": 455207,
                "video": false,
                "vote_average": 7,
                "title": "Crazy Rich Asians",
                "popularity": 33.272,
                "poster_path": "/gnTqi4nhIi1eesT5uYMmhEPGNih.jpg",
                "original_language": "en",
                "original_title": "Crazy Rich Asians",
                "genre_ids": [
                              35,
                              18
                              ],
                "backdrop_path": "/zeHB7aP46Xs3u4aFLuAq2GFeUGb.jpg",
                "adult": false,
                "overview": "An American-born Chinese economics professor accompanies her boyfriend to Singapore for his best friend's wedding, only to get thrust into the lives of Asia's rich and famous.",
                "release_date": "2018-08-15"
                },
                {
                "vote_count": 151,
                "id": 420814,
                "video": false,
                "vote_average": 7.4,
                "title": "Christopher Robin",
                "popularity": 30.005,
                "poster_path": "/xR5w0he6czZkcAz459a4iPBqXGe.jpg",
                "original_language": "en",
                "original_title": "Christopher Robin",
                "genre_ids": [
                              16,
                              12,
                              35
                              ],
                "backdrop_path": "/uDt8bQ4lGVlabEx5Gl2cPzvy6qz.jpg",
                "adult": false,
                "overview": "Working-class family man Christopher Robin encounters his childhood friend Winnie-the-Pooh, who helps him to rediscover the joys of life.",
                "release_date": "2018-08-02"
                },
                {
                "vote_count": 246,
                "id": 487558,
                "video": false,
                "vote_average": 7.6,
                "title": "BlacKkKlansman",
                "popularity": 27.863,
                "poster_path": "/55W6mUVv4CXMMQHHhV2zXtLSpXQ.jpg",
                "original_language": "en",
                "original_title": "BlacKkKlansman",
                "genre_ids": [
                              80,
                              18,
                              35,
                              36
                              ],
                "backdrop_path": "/gMVdhfQ7q9DFHhDkehrququjGPd.jpg",
                "adult": false,
                "overview": "Ron Stallworth, an African-American police officer from Colorado, successfully manages to infiltrate the local Ku Klux Klan and become the head of the local chapter.",
                "release_date": "2018-08-09"
                },
                {
                "vote_count": 15,
                "id": 346910,
                "video": false,
                "vote_average": 0,
                "title": "The Predator",
                "popularity": 26.8,
                "poster_path": "/80R9mbC0cJhasCSUgy1OSpcaTDI.jpg",
                "original_language": "en",
                "original_title": "The Predator",
                "genre_ids": [
                              27,
                              878,
                              28,
                              12
                              ],
                "backdrop_path": "/cCz1uWakOmxhIcoyX3U6Afyl5Ju.jpg",
                "adult": false,
                "overview": "From the outer reaches of space to the small-town streets of suburbia, the hunt comes home. Now, the universe’s most lethal hunters are stronger, smarter and deadlier than ever before, having genetically upgraded themselves with DNA from other species. When a young boy accidentally triggers their return to Earth, only a ragtag crew of ex-soldiers and a disgruntled science teacher can prevent the end of the human race.",
                "release_date": "2018-09-13"
                },
                {
                "vote_count": 26,
                "id": 489999,
                "video": false,
                "vote_average": 7.6,
                "title": "Searching",
                "popularity": 23.356,
                "poster_path": "/pk9R56ZFlofbBzfwBnHlDyg5DMs.jpg",
                "original_language": "en",
                "original_title": "Searching",
                "genre_ids": [
                              18,
                              53
                              ],
                "backdrop_path": "/1q5AauYD1szopz5qnd6qqxnpTHG.jpg",
                "adult": false,
                "overview": "After his 16-year-old daughter goes missing, a desperate father breaks into her laptop to look for clues to find her. A thriller that unfolds entirely on computer screens.",
                "release_date": "2018-08-24"
                },
                {
                "vote_count": 44,
                "id": 347375,
                "video": false,
                "vote_average": 5.2,
                "title": "Mile 22",
                "popularity": 22.845,
                "poster_path": "/2L8ehd95eSW9x7KINYtZmRkAlrZ.jpg",
                "original_language": "en",
                "original_title": "Mile 22",
                "genre_ids": [
                              28
                              ],
                "backdrop_path": "/wWoCid7YUxiLhq3ZZT6CtFEDPXw.jpg",
                "adult": false,
                "overview": "A CIA field officer and an Indonesian police officer are forced to work together in confronting political corruption. An informant must be moved twenty-two miles to safety.",
                "release_date": "2018-08-10"
                },
                {
                "vote_count": 27,
                "id": 425505,
                "video": false,
                "vote_average": 7,
                "title": "Kin",
                "popularity": 22.43,
                "poster_path": "/cFDcj29pWfcRAxEWbUptwQQbj9o.jpg",
                "original_language": "en",
                "original_title": "Kin",
                "genre_ids": [
                              878,
                              28
                              ],
                "backdrop_path": "/dQi56qgM8GYFUHqJqQE4dgSl56y.jpg",
                "adult": false,
                "overview": "An ex-convict and his brother are forced on the run by a vengeful criminal.",
                "release_date": "2018-08-29"
                },
                {
                "vote_count": 8,
                "id": 493551,
                "video": false,
                "vote_average": 7.6,
                "title": "Operation Finale",
                "popularity": 21.722,
                "poster_path": "/uitoc4tDFFotLSs1vJBon52IZIx.jpg",
                "original_language": "en",
                "original_title": "Operation Finale",
                "genre_ids": [
                              18,
                              36
                              ],
                "backdrop_path": "/7diKA3XyLUB9pV6oI9FznQ5lv66.jpg",
                "adult": false,
                "overview": "15 years after the end of  World War II, a team of Israeli secret agents is assigned to track down Adolf Eichmann, the infamous Nazi architect of the Holocaust, reported hiding in Argentina, and smuggle him back to Israel for trial.  A true story.",
                "release_date": "2018-08-29"
                },
                {
                "vote_count": 65,
                "id": 439015,
                "video": false,
                "vote_average": 4.7,
                "title": "Slender Man",
                "popularity": 21.39,
                "poster_path": "/huSncs4RyvQDBmHjBBYHSBYJbSJ.jpg",
                "original_language": "en",
                "original_title": "Slender Man",
                "genre_ids": [
                              27
                              ],
                "backdrop_path": "/5K0fgMaJSdEvqSsS8e3Ez4TpvXR.jpg",
                "adult": false,
                "overview": "In a small town in Massachusetts, four high school girls perform a ritual in an attempt to debunk the lore of Slender Man. When one of the girls goes mysteriously missing, they begin to suspect that she is, in fact, his latest victim.",
                "release_date": "2018-08-10"
                },
                {
                "vote_count": 68,
                "id": 489931,
                "video": false,
                "vote_average": 7.1,
                "title": "American Animals",
                "popularity": 20.703,
                "poster_path": "/aLbdKxgxuOPvs6CTlmzoOQ4Yg3j.jpg",
                "original_language": "en",
                "original_title": "American Animals",
                "genre_ids": [
                              18,
                              80
                              ],
                "backdrop_path": "/3ccBOsbVpgwN9K5whd2UB9ACebG.jpg",
                "adult": false,
                "overview": "Lexington, Kentucky, 2004. Four young men attempt to execute one of the most audacious art heists in the history of the United States.",
                "release_date": "2018-06-01"
                },
                {
                "vote_count": 242,
                "id": 467938,
                "video": false,
                "vote_average": 6.6,
                "title": "Revenge",
                "popularity": 19.441,
                "poster_path": "/aMv5ILxjzA9S930eLImSjfecETH.jpg",
                "original_language": "fr",
                "original_title": "Revenge",
                "genre_ids": [
                              28,
                              53,
                              27
                              ],
                "backdrop_path": "/69RWfbPkGJKX231qorPebXznTAV.jpg",
                "adult": false,
                "overview": "Jen is enjoying a romantic getaway with her wealthy boyfriend, which is disrupted when his friends suddenly arrive. Tension mounts at the house until the situation culminates in an unexpected way.",
                "release_date": "2018-01-19"
                },
                {
                "vote_count": 4590,
                "id": 62,
                "video": false,
                "vote_average": 8,
                "title": "2001: A Space Odyssey",
                "popularity": 19.114,
                "poster_path": "/90T7b2LIrL07ndYQBmSm09yqVEH.jpg",
                "original_language": "en",
                "original_title": "2001: A Space Odyssey",
                "genre_ids": [
                              878,
                              9648,
                              12
                              ],
                "backdrop_path": "/6gyZF4SeifiUUYDELkCS8nOqsu2.jpg",
                "adult": false,
                "overview": "Humanity finds a mysterious object buried beneath the lunar surface and sets off to find its origins with the help of HAL 9000, the world's most advanced super computer.",
                "release_date": "1968-04-09"
                },
                {
                "vote_count": 230,
                "id": 440471,
                "video": false,
                "vote_average": 4.7,
                "title": "Escape Plan 2: Hades",
                "popularity": 18.353,
                "poster_path": "/Aqhl55vpzxNFqVfc2DpedUsR39L.jpg",
                "original_language": "en",
                "original_title": "Escape Plan 2: Hades",
                "genre_ids": [
                              80,
                              28,
                              53
                              ],
                "backdrop_path": "/xIAaN3AQqaJiN5RJ0WsmBady8Hq.jpg",
                "adult": false,
                "overview": "Ray Breslin manages an elite team of security specialists trained in the art of breaking people out of the world's most impenetrable prisons. When his most trusted operative, Shu Ren, is kidnapped and disappears inside the most elaborate prison ever built, Ray must track him down with the help of some of his former friends.",
                "release_date": "2018-06-05"
                }
                ],
    "page": 1,
    "total_results": 431,
    "dates": {
        "maximum": "2018-09-29",
        "minimum": "2018-09-02"
    },
    "total_pages": 22
}
